module gitlab.com/uranderu/free-alias

go 1.23

require modernc.org/sqlite v1.34.1

require (
	github.com/dustin/go-humanize v1.0.1 // indirect
	github.com/google/uuid v1.6.0 // indirect
	github.com/hashicorp/golang-lru/v2 v2.0.7 // indirect
	github.com/mattn/go-isatty v0.0.20 // indirect
	github.com/ncruces/go-strftime v0.1.9 // indirect
	github.com/remyoudompheng/bigfft v0.0.0-20230129092748-24d4a6f8daec // indirect
	golang.org/x/exp v0.0.0-20241108190413-2d47ceb2692f // indirect
	golang.org/x/sys v0.27.0 // indirect
	modernc.org/gc/v3 v3.0.0-20241004144649-1aea3fae8852 // indirect
	modernc.org/libc v1.61.2 // indirect
	modernc.org/mathutil v1.6.0 // indirect
	modernc.org/memory v1.8.0 // indirect
	modernc.org/strutil v1.2.0 // indirect
	modernc.org/token v1.1.0 // indirect
)
